%YAML 1.1
%TAG !u! tag:unity3d.com,2011:
--- !u!1001 &170500419971945649
PrefabInstance:
  m_ObjectHideFlags: 0
  serializedVersion: 2
  m_Modification:
    m_TransformParent: {fileID: 0}
    m_Modifications:
    - target: {fileID: 3472112125047456120, guid: 6f8d005b6ca5eb64d849dd92df78ee99,
        type: 3}
      propertyPath: color
      value: 1
      objectReference: {fileID: 0}
    - target: {fileID: 3472112125047456121, guid: 6f8d005b6ca5eb64d849dd92df78ee99,
        type: 3}
      propertyPath: m_Materials.Array.data[0]
      value: 
      objectReference: {fileID: 2100000, guid: 405ed7579f624314ba33ba94882e3397, type: 2}
    - target: {fileID: 3472112125047456121, guid: 6f8d005b6ca5eb64d849dd92df78ee99,
        type: 3}
      propertyPath: m_Color.r
      value: 0.64705884
      objectReference: {fileID: 0}
    - target: {fileID: 3472112125047456121, guid: 6f8d005b6ca5eb64d849dd92df78ee99,
        type: 3}
      propertyPath: m_Color.g
      value: 0.83137256
      objectReference: {fileID: 0}
    - target: {fileID: 3472112125047456121, guid: 6f8d005b6ca5eb64d849dd92df78ee99,
        type: 3}
      propertyPath: m_Color.b
      value: 0.3882353
      objectReference: {fileID: 0}
    - target: {fileID: 3472112125047456123, guid: 6f8d005b6ca5eb64d849dd92df78ee99,
        type: 3}
      propertyPath: m_Name
      value: GreenWarehouse
      objectReference: {fileID: 0}
    - target: {fileID: 3472112125047456127, guid: 6f8d005b6ca5eb64d849dd92df78ee99,
        type: 3}
      propertyPath: m_LocalPosition.x
      value: 0
      objectReference: {fileID: 0}
    - target: {fileID: 3472112125047456127, guid: 6f8d005b6ca5eb64d849dd92df78ee99,
        type: 3}
      propertyPath: m_LocalPosition.y
      value: 55
      objectReference: {fileID: 0}
    - target: {fileID: 3472112125047456127, guid: 6f8d005b6ca5eb64d849dd92df78ee99,
        type: 3}
      propertyPath: m_LocalPosition.z
      value: 0
      objectReference: {fileID: 0}
    - target: {fileID: 3472112125047456127, guid: 6f8d005b6ca5eb64d849dd92df78ee99,
        type: 3}
      propertyPath: m_LocalRotation.x
      value: 0
      objectReference: {fileID: 0}
    - target: {fileID: 3472112125047456127, guid: 6f8d005b6ca5eb64d849dd92df78ee99,
        type: 3}
      propertyPath: m_LocalRotation.y
      value: 0
      objectReference: {fileID: 0}
    - target: {fileID: 3472112125047456127, guid: 6f8d005b6ca5eb64d849dd92df78ee99,
        type: 3}
      propertyPath: m_LocalRotation.z
      value: 0
      objectReference: {fileID: 0}
    - target: {fileID: 3472112125047456127, guid: 6f8d005b6ca5eb64d849dd92df78ee99,
        type: 3}
      propertyPath: m_LocalRotation.w
      value: 1
      objectReference: {fileID: 0}
    - target: {fileID: 3472112125047456127, guid: 6f8d005b6ca5eb64d849dd92df78ee99,
        type: 3}
      propertyPath: m_RootOrder
      value: 0
      objectReference: {fileID: 0}
    - target: {fileID: 3472112125047456127, guid: 6f8d005b6ca5eb64d849dd92df78ee99,
        type: 3}
      propertyPath: m_LocalEulerAnglesHint.x
      value: 0
      objectReference: {fileID: 0}
    - target: {fileID: 3472112125047456127, guid: 6f8d005b6ca5eb64d849dd92df78ee99,
        type: 3}
      propertyPath: m_LocalEulerAnglesHint.y
      value: 0
      objectReference: {fileID: 0}
    - target: {fileID: 3472112125047456127, guid: 6f8d005b6ca5eb64d849dd92df78ee99,
        type: 3}
      propertyPath: m_LocalEulerAnglesHint.z
      value: 0
      objectReference: {fileID: 0}
    - target: {fileID: 3472112125047456127, guid: 6f8d005b6ca5eb64d849dd92df78ee99,
        type: 3}
      propertyPath: m_LocalScale.x
      value: 15
      objectReference: {fileID: 0}
    m_RemovedComponents: []
  m_SourcePrefab: {fileID: 100100000, guid: 6f8d005b6ca5eb64d849dd92df78ee99, type: 3}
