%YAML 1.1
%TAG !u! tag:unity3d.com,2011:
--- !u!1001 &2717114738579847634
PrefabInstance:
  m_ObjectHideFlags: 0
  serializedVersion: 2
  m_Modification:
    m_TransformParent: {fileID: 0}
    m_Modifications:
    - target: {fileID: 3472112125047456123, guid: 6f8d005b6ca5eb64d849dd92df78ee99,
        type: 3}
      propertyPath: m_Name
      value: PinkWarehouse
      objectReference: {fileID: 0}
    - target: {fileID: 3472112125047456127, guid: 6f8d005b6ca5eb64d849dd92df78ee99,
        type: 3}
      propertyPath: m_LocalPosition.x
      value: -28
      objectReference: {fileID: 0}
    - target: {fileID: 3472112125047456127, guid: 6f8d005b6ca5eb64d849dd92df78ee99,
        type: 3}
      propertyPath: m_LocalPosition.y
      value: 55
      objectReference: {fileID: 0}
    - target: {fileID: 3472112125047456127, guid: 6f8d005b6ca5eb64d849dd92df78ee99,
        type: 3}
      propertyPath: m_LocalPosition.z
      value: 0
      objectReference: {fileID: 0}
    - target: {fileID: 3472112125047456127, guid: 6f8d005b6ca5eb64d849dd92df78ee99,
        type: 3}
      propertyPath: m_LocalRotation.x
      value: 0
      objectReference: {fileID: 0}
    - target: {fileID: 3472112125047456127, guid: 6f8d005b6ca5eb64d849dd92df78ee99,
        type: 3}
      propertyPath: m_LocalRotation.y
      value: 0
      objectReference: {fileID: 0}
    - target: {fileID: 3472112125047456127, guid: 6f8d005b6ca5eb64d849dd92df78ee99,
        type: 3}
      propertyPath: m_LocalRotation.z
      value: -0.38268343
      objectReference: {fileID: 0}
    - target: {fileID: 3472112125047456127, guid: 6f8d005b6ca5eb64d849dd92df78ee99,
        type: 3}
      propertyPath: m_LocalRotation.w
      value: 0.92387956
      objectReference: {fileID: 0}
    - target: {fileID: 3472112125047456127, guid: 6f8d005b6ca5eb64d849dd92df78ee99,
        type: 3}
      propertyPath: m_RootOrder
      value: 0
      objectReference: {fileID: 0}
    - target: {fileID: 3472112125047456127, guid: 6f8d005b6ca5eb64d849dd92df78ee99,
        type: 3}
      propertyPath: m_LocalEulerAnglesHint.x
      value: 0
      objectReference: {fileID: 0}
    - target: {fileID: 3472112125047456127, guid: 6f8d005b6ca5eb64d849dd92df78ee99,
        type: 3}
      propertyPath: m_LocalEulerAnglesHint.y
      value: 0
      objectReference: {fileID: 0}
    - target: {fileID: 3472112125047456127, guid: 6f8d005b6ca5eb64d849dd92df78ee99,
        type: 3}
      propertyPath: m_LocalEulerAnglesHint.z
      value: -45
      objectReference: {fileID: 0}
    m_RemovedComponents: []
  m_SourcePrefab: {fileID: 100100000, guid: 6f8d005b6ca5eb64d849dd92df78ee99, type: 3}
