%YAML 1.1
%TAG !u! tag:unity3d.com,2011:
--- !u!114 &11400000
MonoBehaviour:
  m_ObjectHideFlags: 0
  m_CorrespondingSourceObject: {fileID: 0}
  m_PrefabInstance: {fileID: 0}
  m_PrefabAsset: {fileID: 0}
  m_GameObject: {fileID: 0}
  m_Enabled: 1
  m_EditorHideFlags: 0
  m_Script: {fileID: 11500000, guid: 79a63c63867c6f744b2a9714c82cc746, type: 3}
  m_Name: 4Colors
  m_EditorClassIdentifier: 
  colors:
  - elementColor: 0
    color: {r: 0.38823533, g: 0.70980394, b: 0.8313726, a: 1}
    neonMaterial: {fileID: 2100000, guid: 175bf302e7a35604a89c4afe7e794bd6, type: 2}
  - elementColor: 1
    color: {r: 0.64705884, g: 0.8313726, b: 0.38823533, a: 1}
    neonMaterial: {fileID: 2100000, guid: 405ed7579f624314ba33ba94882e3397, type: 2}
  - elementColor: 3
    color: {r: 0.8313726, g: 0.38823533, b: 0.54509807, a: 1}
    neonMaterial: {fileID: 2100000, guid: 69c662df90dde8b448ca166e7c13a816, type: 2}
  - elementColor: 4
    color: {r: 0.6745098, g: 0.38823533, b: 0.8313726, a: 1}
    neonMaterial: {fileID: 2100000, guid: 862128cc46b527042bfb56312e747b07, type: 2}
