%YAML 1.1
%TAG !u! tag:unity3d.com,2011:
--- !u!1 &2078050520522247197
GameObject:
  m_ObjectHideFlags: 0
  m_CorrespondingSourceObject: {fileID: 0}
  m_PrefabInstance: {fileID: 0}
  m_PrefabAsset: {fileID: 0}
  serializedVersion: 6
  m_Component:
  - component: {fileID: 2078050520522247199}
  - component: {fileID: 2078050520522247198}
  m_Layer: 0
  m_Name: LevelListController
  m_TagString: Untagged
  m_Icon: {fileID: 0}
  m_NavMeshLayer: 0
  m_StaticEditorFlags: 0
  m_IsActive: 1
--- !u!4 &2078050520522247199
Transform:
  m_ObjectHideFlags: 0
  m_CorrespondingSourceObject: {fileID: 0}
  m_PrefabInstance: {fileID: 0}
  m_PrefabAsset: {fileID: 0}
  m_GameObject: {fileID: 2078050520522247197}
  m_LocalRotation: {x: 0, y: 0, z: 0, w: 1}
  m_LocalPosition: {x: 144.02737, y: 283.48514, z: -261.53085}
  m_LocalScale: {x: 1, y: 1, z: 1}
  m_Children: []
  m_Father: {fileID: 0}
  m_RootOrder: 0
  m_LocalEulerAnglesHint: {x: 0, y: 0, z: 0}
--- !u!114 &2078050520522247198
MonoBehaviour:
  m_ObjectHideFlags: 0
  m_CorrespondingSourceObject: {fileID: 0}
  m_PrefabInstance: {fileID: 0}
  m_PrefabAsset: {fileID: 0}
  m_GameObject: {fileID: 2078050520522247197}
  m_Enabled: 1
  m_EditorHideFlags: 0
  m_Script: {fileID: 11500000, guid: 10cbbda8364797c44ad4e72cb82d176b, type: 3}
  m_Name: 
  m_EditorClassIdentifier: 
  levelStructures:
  - {fileID: 11400000, guid: 566a217d2d2f649f98ae2d81b6e8c51e, type: 2}
  - {fileID: 11400000, guid: 738a8546a8c594d77901c9b5df1d51a4, type: 2}
  infiniteStructures: []
  infiniteRhythms: []
